<?xml version="1.0" standalone="no"?>
<!DOCTYPE svg PUBLIC "-//W3C//DTD SVG 1.1//EN" "http://www.w3.org/Graphics/SVG/1.1/DTD/svg11.dtd" >
<svg xmlns="http://www.w3.org/2000/svg" xmlns:xlink="http://www.w3.org/1999/xlink" version="1.1" viewBox="-10 0 265 256">
  <g transform="matrix(1 0 0 -1 0 220)">
   <path fill="currentColor"
d="M44 199l6 -32q4 -24 8 -64q2 -3 2 -5q0 -1 -4 -5v-22q-26 -53 -52 -70v-4q13 -7 22 -18h6q9 4 22 24l24 44q1 6 6 20v4h80l20 -64q2 0 28 -28h22l6 6v4q-28 19 -48 66v46l-4 3v1q0 1 2 2l4 20q3 44 10 72h-36v-4l4 -8v-28q-1 0 -6 -20q0 -2 -10 -4t-12 -4h-60v8l-4 16v36
h-6l-30 8v0zM164 115v-23l-6 -5h-74v24h56l16 4h8v0z" />
  </g>

</svg>
